{
  "name": "Vendor-Heyzap-Vungle",
  "version": "4.0.9-r1",
  "summary": "Vungle",
  "description": "Vungle 4.0.9-r1",
  "homepage": "https://s3.amazonaws.com/third-party-sdk/ios_combined_platform_vungle_4.0.9/Fyber_Vungle_4.0.9-r1.zip",
  "license": "BSD",
  "authors": "support@muneris.io",
  "platforms": {
    "ios": "7.0"
  },
  "source": {
    "http": "https://s3.amazonaws.com/third-party-sdk/ios_combined_platform_vungle_4.0.9/Fyber_Vungle_4.0.9-r1.zip"
  },
  "public_header_files": "Fyber_Vungle_4.0.9-r1/Fyber_Vungle_4.0.9-r1.embeddedframework/Fyber_Vungle_4.0.9-r1.framework/Versions/A/Headers/*.h",
  "vendored_frameworks": "Fyber_Vungle_4.0.9-r1/Fyber_Vungle_4.0.9-r1.embeddedframework/Fyber_Vungle_4.0.9-r1.framework",
  "preserve_paths": "Fyber_Vungle_4.0.9-r1/Fyber_Vungle_4.0.9-r1.embeddedframework",
  "resources": "Fyber_Vungle_4.0.9-r1/Fyber_Vungle_4.0.9-r1.embeddedframework/Fyber_Vungle_4.0.9-r1.framework/Versions/A/Resources/*.png",
  "frameworks": [
    "AudioToolbox",
    "AVFoundation",
    "CFNetwork",
    "CoreGraphics",
    "CoreMedia",
    "MediaPlayer",
    "QuartzCore",
    "SystemConfiguration"
  ],
  "libraries": [
    "z"
  ],
  "requires_arc": true
}
