{
  "name": "Vendor-UnityAds",
  "version": "2.0.2",
  "summary": "UnityAds",
  "description": "UnityAds 2.0.2",
  "homepage": "https://github.com/Unity-Technologies/unity-ads-ios",
  "license": {
    "type": "proprietary",
    "text": "Wrapper for party UnityAds.framework"
  },
  "authors": {
    "Muneris": "support@muneris.io"
  },
  "platforms": {
    "ios": "7.0"
  },
  "source": {
    "http": "https://github.com/Unity-Technologies/unity-ads-ios/releases/download/2.0.2/UnityAds.framework.zip"
  },
  "ios": {
    "vendored_frameworks": "UnityAds.framework"
  },
  "frameworks": [
    "AdSupport",
    "AVFoundation",
    "CFNetwork",
    "CoreFoundation",
    "CoreMedia",
    "CoreTelephony",
    "StoreKit",
    "SystemConfiguration"
  ],
  "requires_arc": true
}