{
  "name": "Vendor-Heyzap-Tapjoy",
  "version": "11.9.1-r1",
  "summary": "Tapjoy",
  "description": "Tapjoy 11.9.1-r1",
  "homepage": "https://s3.amazonaws.com/third-party-sdk/ios_combined_platform_tapjoy_11.9.1/Fyber_Tapjoy_11.9.1-r1.zip",
  "license": "BSD",
  "authors": "support@muneris.io",
  "platforms": {
    "ios": "7.0"
  },
  "source": {
    "http": "https://s3.amazonaws.com/third-party-sdk/ios_combined_platform_tapjoy_11.9.1/Fyber_Tapjoy_11.9.1-r1.zip"
  },
  "vendored_frameworks": "Fyber_Tapjoy_11.9.1-r1/Fyber_Tapjoy_11.9.1-r1.embeddedframework/Fyber_Tapjoy_11.9.1-r1.framework",
  "preserve_paths": "Fyber_Tapjoy_11.9.1-r1/**",
  "resources": "Fyber_Tapjoy_11.9.1-r1/Fyber_Tapjoy_11.9.1-r1.embeddedframework/Fyber_Tapjoy_11.9.1-r1.framework/Versions/A/Resources/TapjoyResources.bundle",
  "frameworks": [
    "CFNetwork",
    "CoreData",
    "CoreGraphics",
    "CoreLocation",
    "CoreMotion",
    "CoreTelephony",
    "EventKit",
    "EventKitUI",
    "Foundation",
    "MapKit",
    "MediaPlayer",
    "MessageUI",
    "MobileCoreServices",
    "QuartzCore",
    "Security",
    "Social",
    "SystemConfiguration",
    "Twitter",
    "UIKit"
  ],
  "weak_frameworks": [
    "AdSupport",
    "StoreKit"
  ],
  "libraries": [
    "c++",
    "sqlite3",
    "z"
  ],
  "requires_arc": true
}
