{
  "name": "Vendor-Heyzap",
  "version": "9.11.5",
  "summary": "Heyzap",
  "description": "Heyzap 9.11.5",
  "homepage": "https://developers.heyzap.com/docs/ios_sdk_setup_and_requirements",
  "license": "BSD",
  "authors": "support@muneris.io",
  "platforms": {
    "ios": "7.0"
  },
  "source": {
    "http": "https://s3.amazonaws.com/hz-sdk/sdk/heyzap-ads-sdk-9.11.5.zip"
  },
  "vendored_frameworks": ["heyzap-ads-sdk-9.11.5/ios-sdk/HeyzapAds.framework"],
  "public_headers": "heyzap-ads-sdk-9.11.5/ios-sdk/HeyzapAds.framework/Versions/A/Headers/*.h",
  "preserve_paths": "*",
  "pod_target_xcconfig": {
     "OTHER_LDFLAGS": "-ObjC"
  },
  "requires_arc": true
}
