{
  "name": "Vendor-Fyber-HyprMX",
  "version": "4.1.0.68-r1",
  "summary": "HyprMX",
  "description": "HyprMX 4.1.0.68-r1",
  "homepage": "https://bintray.com/artifact/download/fyber/mobile-adapters-ios/Fyber_HyprMX_4.1.0.68-r1.zip",
  "license": "BSD",
  "authors": "support@muneris.io",
  "platforms": {
    "ios": "7.0"
  },
  "source": {
    "http": "https://bintray.com/artifact/download/fyber/mobile-adapters-ios/Fyber_HyprMX_4.1.0.68-r1.zip"
  },
  "public_header_files": "Fyber_HyprMX_4.1.0.68-r1/SDK8/Fyber_HyprMX_4.1.0.68-r1.embeddedframework/Fyber_HyprMX_4.1.0.68-r1.framework/Versions/A/Headers/*.h",
  "vendored_frameworks": "Fyber_HyprMX_4.1.0.68-r1/SDK8/Fyber_HyprMX_4.1.0.68-r1.embeddedframework/Fyber_HyprMX_4.1.0.68-r1.framework",
  "preserve_paths": "Fyber_HyprMX_4.1.0.68-r1/SDK8/Fyber_HyprMX_4.1.0.68-r1.embeddedframework",
  "frameworks": [
    "Accelerate",
    "AdSupport",
    "AVFoundation",
    "CoreGraphics",
    "CoreLocation",
    "CoreMedia",
    "Foundation",
    "MessageUI",
    "MobileCoreServices",
    "QuartzCore",
    "SystemConfiguration",
    "UIKit",
    "StoreKit",
    "MediaPlayer"
  ],
  "pod_target_xcconfig": {
    "OTHER_LDFLAGS": "-ObjC"
  },
  "requires_arc": true
}