{
  "name": "Vendor-Heyzap-Admob",
  "version": "7.10.0-r1",
  "summary": "Admob",
  "description": "Admob 7.10.0-r1",
  "homepage": "https://s3.amazonaws.com/third-party-sdk/ios_combined_platform_admob_7.10.0/Unified-Platform_AdMob_7.10.0-r1.zip",
  "license": "BSD",
  "authors": "support@muneris.io",
  "platforms": {
    "ios": "7.0"
  },
  "source": {
    "http": "https://s3.amazonaws.com/third-party-sdk/ios_combined_platform_admob_7.10.0/Unified-Platform_AdMob_7.10.0-r1.zip"
  },
  "public_header_files": "Unified-Platform_AdMob_7.10.0-r1/Fyber_AdMob_7.10.0-r1.embeddedframework/Fyber_AdMob_7.10.0-r1.framework/Versions/A/Headers/*.h",
  "vendored_frameworks": "Unified-Platform_AdMob_7.10.0-r1/Fyber_AdMob_7.10.0-r1.embeddedframework/Fyber_AdMob_7.10.0-r1.framework",
  "preserve_paths": "Unified-Platform_AdMob_7.10.0-r1/Fyber_AdMob_7.10.0-r1.embeddedframework",
  "frameworks": [
    "AVFoundation",
    "AudioToolbox",
    "CoreGraphics",
    "CoreLocation",
    "CoreMedia",
    "CoreTelephony",
    "CoreVideo",
    "Foundation",
    "GLKit",
    "MediaPlayer",
    "MessageUI",
    "OpenGLES",
    "QuartzCore",
    "SafariServices",
    "SystemConfiguration",
    "UIKit"
  ], 
  "requires_arc": true
}
