{
  "name": "Vendor-TrialPay",
  "version": "2.2015320",
  "summary": "wrapper for 3rd party vendor: trial pay ",
  "description": "wrapper for 3rd party vendor: trial pay  ",
  "license": {
    "type": "Commercial",
    "text": "REPLACE THIS"
  },
  "homepage": "http://www.trialpay.com",
  "authors": { "trailpay": "http://www.trialpay.com" },
  "source": {
    "git": "https://github.com/trialpay/iOSV2.git",
    "commit" : "1c93a1308f61cc4504b830babc13a71cec8aca8a"
  },
  "platforms": {
    "ios": null
  },
  "source_files": "TrialpayIosSdk/**/*.{h,m}",
  "frameworks": [
    "Foundation",
    "UIKit"
  ],
  "libraries": [
    "sqlite3"
  ],
  "requires_arc": false
}
