{
  "name": "Vendor-Admob-AppLovin",
  "version": "1.0.0",
  "summary": "Admob Applovin Adapter",
  "description": "Admob Applovin Adapter 1.0.0",
  "homepage": "https://github.com/AppLovin/SDK-Network-Adaptors/tree/master/AdMob",
  "license": "BSD",
  "authors": "support@muneris.io",
  "platforms": {
    "ios": "7.0"
  },
  "source": {
    "http": "http://repo.muneris.io/ios-vendors/admob-libadapterapplovin-1.0.0.zip"
  },
  "public_header_files": "*.h",
  "preserve_paths": "*",
  "requires_arc": true
}