{
  "name": "Vendor-Heyzap-Chartboost",
  "version": "6.5.2-r1",
  "summary": "Chartboost",
  "description": "Chartboost 6.5.2-r1",
  "homepage": "https://fyber.bintray.com/mobile-adapters-ios/Fyber_Chartboost_6.5.2-r1.zip",
  "license": "BSD",
  "authors": "support@muneris.io",
  "platforms": {
    "ios": "7.0"
  },
  "source": {
    "http": "https://fyber.bintray.com/mobile-adapters-ios/Fyber_Chartboost_6.5.2-r1.zip"
  },
  "public_header_files": "Fyber_Chartboost_6.5.2-r1/SDK8/Fyber_Chartboost_6.5.2-r1.embeddedframework/Fyber_Chartboost_6.5.2-r1.framework/Versions/A/Headers/*.h",
  "vendored_frameworks": "Fyber_Chartboost_6.5.2-r1/SDK8/Fyber_Chartboost_6.5.2-r1.embeddedframework/Fyber_Chartboost_6.5.2-r1.framework",
  "preserve_paths": "Fyber_Chartboost_6.5.2-r1/SDK8/Fyber_Chartboost_6.5.2-r1.embeddedframework",
  "frameworks" :[
    "CoreData",
    "CoreGraphics",
    "Foundation",
    "SystemConfiguration",
    "UIKit"
  ],
  "requires_arc": true
}
